[gd_scene load_steps=22 format=1]

[ext_resource path="res://scenes/player/sprites.png" type="Texture" id=1]
[ext_resource path="res://assets/common/img/light.png" type="Texture" id=2]
[ext_resource path="res://scenes/player/foot_print.png" type="Texture" id=3]
[ext_resource path="res://scenes/player/hooker.png" type="Texture" id=4]
[ext_resource path="res://scenes/over/hook/break.wav" type="Sample" id=5]
[ext_resource path="res://scenes/player/die.wav" type="Sample" id=6]
[ext_resource path="res://scenes/player/fall.wav" type="Sample" id=7]
[ext_resource path="res://scenes/player/foot.wav" type="Sample" id=8]
[ext_resource path="res://scenes/player/hook.wav" type="Sample" id=9]

[sub_resource type="CircleShape2D" id=1]

custom_solver_bias = 0.0
radius = 3.14159

[sub_resource type="GDScript" id=2]

script/source = "\nextends RigidBody2D\n\nvar player_scn = preload(\"res://scenes/player/player.tscn\")\n\nvar velocity = Vector2()\nexport var SPEED = 640.0\nexport var HOOK_MULTIPLICATOR = 5.0\nexport var hook_range = 160.0\nvar dead = false\nvar hooking = false\nvar safe_from_traps = false\nvar hook = null\n\nvar cell_size = Vector2(32,32)\n\nfunc _ready():\n\t# Called every time the node is added to the scene.\n\t# Initialization here\n#\tcell_size = get_tree().call_group(0, \"tilemap\", \"get_cell_size\")\n\tset_fixed_process(true)\n\tadd_to_group(\"player\")\n\tpass\n\t\nfunc _fixed_process(delta):\n\tif hooking :\n\t\thook_move(delta)\n\telse :\n\t\tregular_move(delta)\n\t\t\n\t\n\t# Set it look to the mouse\n\tvar mouse_pos = get_global_mouse_pos()\n\tset_rot( -PI/2.0 -(mouse_pos - get_global_pos()).angle_to( Vector2(1.0,0.0) ) - PI/2.0 )\n\n\t# Act on objects\n\tif Input.is_action_pressed(\"player_act\"):\n\t\tvar overlapping = get_node(\"range\").get_overlapping_bodies() # nodes in area\n\t\tfor body in overlapping:\n\t\t\tif body.is_in_group(\"trigger\") and body.has_method(\"trigger\") :\n\t\t\t\tbody.trigger(self)\n\nfunc regular_move( delta ):\n\t\n\tif get_node(\"/root/player\").controls_enabled  :\n\t\tif Input.is_action_pressed(\"player_down\") :\n\t\t\tvelocity.y = SPEED\n\t\telif Input.is_action_pressed(\"player_up\") :\n\t\t\tvelocity.y = -SPEED\n\t\telse :\n\t\t\tvelocity.y = 0.0\n\t\t\t\n\t\tif Input.is_action_pressed(\"player_left\") :\n\t\t\tvelocity.x = -SPEED\n\t\telif Input.is_action_pressed(\"player_right\") :\n\t\t\tvelocity.x = SPEED\n\t\telse :\n\t\t\tvelocity.x = 0.0\n\t\t\n\t\tif Input.is_action_pressed(\"player_run\"):\n\t\t\tvelocity *= 2.0\n\t\t\tget_node(\"anim\").set_speed( 1.5 )\n\t\telse :\n\t\t\tget_node(\"anim\").set_speed( 1 )\n\telse :\n\t\t# controls disabled\n\t\tvelocity = Vector2(0,0)\n\t\n\t# Actually Moves\n\tvar motion = velocity * delta\n\tset_linear_velocity(velocity)\n#\t\n#\t# Slide if colliding on 1D obstacle\n#\tif is_colliding():\n#\t\tvar n = get_collision_normal()\n#\t\tvar motion = n.slide(motion)\n#\t\tmove(motion)\n\t\t\n\tlook_for_traps()\n\t\n\nfunc look_for_traps():\n\t# Look for traps\n\tvar tilemaps = get_tree().get_nodes_in_group(\"tilemap\")\n\tvar tilemap = null\n\tif tilemaps.size() : tilemap = tilemaps[0]\n\tvar cell = null\n\tif tilemap : \n\t\tcell = tilemap.get_cellv( (get_global_pos() - tilemap.get_global_pos()) / cell_size )\n#\t\tprint(\"pos : \" , get_global_pos() - tilemap.get_global_pos(), \" index \" , (get_global_pos() - tilemap.get_global_pos()) / cell_size )\n\t\n#\tprint(\"Cell = \" , cell)\n\tif ( cell == -1 or cell == 3 ) and not safe_from_traps  : #  or\n\t\tdie(\"fall\")\n\t\tprint(\"Player walked on wrong cell which is :\" , cell)\n\nfunc die( anim = \"die\" ):\n\tif not dead  :\n\t\tvelocity = Vector2()\n\t\tget_node(\"anim\").play(anim)\n\t\tget_node(\"/root/player\").controls_enabled = false\n\t\tdead = true\n\t\tget_tree().call_group(0, \"death\", \"died\")\n\t\nfunc respawn():\n\n\tget_tree().reload_current_scene()\n\tget_node(\"/root/player\").controls_enabled = true\n\nfunc hook_move(delta):\n\tvar distance = (hook.get_global_pos() - get_global_pos())\n\tvar motion = distance.normalized() * SPEED  * HOOK_MULTIPLICATOR\n\tset_linear_velocity(motion)\n#\tif not get_colliding_bodies().empty() or distance.length() <= 5 : # HARD CODE OF DEATH !\n\tif test_motion( motion * delta ) or distance.length() <= 5 :\n\t\thooking = false \n\t\tsafe_from_traps = false\n\t\tif hook.single_use and hook.get_global_pos().distance_to(get_global_pos()) <= 32 : \n\t\t\thook.queue_free()\n\t\t\tget_node(\"sound\").play(\"break\")\n\nfunc hook( hook ):\n\tif get_global_pos().distance_to(hook.get_global_pos()) <= hook_range:\n\t\thooking = true\n\t\tself.hook = hook\n\t\tsafe_from_traps = true\n\t\tget_node(\"hooker\").start = get_global_pos()\n\t\tget_node(\"hooker\").rot = get_node(\"sprite\").get_rot()\n\t\tget_node(\"sound\").play(\"hook\")\n\t\t"

[sub_resource type="Animation" id=3]

resource/name = "die"
length = 1.5
loop = false
step = 0.1
tracks/0/type = "value"
tracks/0/path = NodePath("sprite:visibility/opacity")
tracks/0/interp = 1
tracks/0/imported = false
tracks/0/keys = { "times":FloatArray( 0, 1 ), "transitions":FloatArray( 1, 1 ), "update":0, "values":[ 1.0, 0.0 ] }
tracks/1/type = "method"
tracks/1/path = NodePath(".")
tracks/1/interp = 1
tracks/1/imported = false
tracks/1/keys = { "times":FloatArray( 1.5 ), "transitions":FloatArray( 1 ), "values":[ { "args":[  ], "method":"respawn" } ] }
tracks/2/type = "method"
tracks/2/path = NodePath("sound")
tracks/2/interp = 1
tracks/2/imported = false
tracks/2/keys = { "times":FloatArray( 0 ), "transitions":FloatArray( 1 ), "values":[ { "args":[ "die" ], "method":"play" } ] }

[sub_resource type="Animation" id=4]

length = 1.5
loop = false
step = 0.1
tracks/0/type = "value"
tracks/0/path = NodePath("sprite:transform/scale")
tracks/0/interp = 1
tracks/0/imported = false
tracks/0/keys = { "times":FloatArray( 0, 0.8 ), "transitions":FloatArray( 1, 1 ), "update":0, "values":[ Vector2( 1, 1 ), Vector2( 1e-05, 1e-05 ) ] }
tracks/1/type = "method"
tracks/1/path = NodePath(".")
tracks/1/interp = 1
tracks/1/imported = false
tracks/1/keys = { "times":FloatArray( 1.5 ), "transitions":FloatArray( 1 ), "values":[ { "args":[  ], "method":"respawn" } ] }
tracks/2/type = "method"
tracks/2/path = NodePath("sound")
tracks/2/interp = 1
tracks/2/imported = false
tracks/2/keys = { "times":FloatArray( 0, 0.8 ), "transitions":FloatArray( 1, 1 ), "values":[ { "args":[ "fall" ], "method":"play" }, { "args":[ "break" ], "method":"play" } ] }

[sub_resource type="Animation" id=5]

length = 1.0
loop = false
step = 0.1
tracks/0/type = "value"
tracks/0/path = NodePath("sprite:transform/scale")
tracks/0/interp = 1
tracks/0/imported = false
tracks/0/keys = { "times":FloatArray(  ), "transitions":FloatArray(  ), "update":0, "values":[  ] }

[sub_resource type="Animation" id=6]

length = 1.6
loop = true
step = 0.1
tracks/0/type = "value"
tracks/0/path = NodePath("sprite:frame")
tracks/0/interp = 1
tracks/0/imported = false
tracks/0/keys = { "times":FloatArray( 0, 0.2, 0.4, 0.6, 0.8, 1, 1.2, 1.4 ), "transitions":FloatArray( 1, 1, 1, 1, 1, 1, 1, 1 ), "update":1, "values":[ 1, 0, 1, 2, 1, 0, 1, 2 ] }
tracks/1/type = "method"
tracks/1/path = NodePath("sound")
tracks/1/interp = 1
tracks/1/imported = false
tracks/1/keys = { "times":FloatArray( 0.4, 1.2 ), "transitions":FloatArray( 1, 1 ), "values":[ { "args":[ "foot" ], "method":"play" }, { "args":[ "foot" ], "method":"play" } ] }

[sub_resource type="GDScript" id=7]

script/source = "\nextends AnimationPlayer\n\n# member variables here, example:\n# var a=2\n# var b=\"textvar\"\nonready var body = get_parent()\n\nfunc _ready():\n\t# Called every time the node is added to the scene.\n\t# Initialization here\n\tset_fixed_process(true)\n\tpass\n\t\nfunc _fixed_process(delta):\n\tif body.velocity != Vector2() and not get_current_animation() == \"walk\":\n\t\tplay(\"walk\")\n\tif body.velocity == Vector2() and get_current_animation() == \"walk\":\n\t\tplay(\"iddle\")\n\n\n"

[sub_resource type="RectangleShape2D" id=8]

custom_solver_bias = 0.0
extents = Vector2( 20, 20 )

[sub_resource type="RectangleShape2D" id=9]

custom_solver_bias = 0.0
extents = Vector2( 2.70771, 2.67461 )

[sub_resource type="GDScript" id=10]

script/source = "\nextends Particles2D\n\n# member variables here, example:\n# var a=2\n# var b=\"textvar\"\n\nfunc _ready():\n\t# Called every time the node is added to the scene.\n\t# Initialization here\n\tset_fixed_process(true)\n\tpass\n\t\nfunc _fixed_process(delta):\n\tvar velocity = get_parent().velocity\n\tif velocity == Vector2():\n\t\tset_emitting(false)\n\telse :\n\t\tset_emitting(true)\n\t\t\n\tif Input.is_action_pressed(\"player_run\"):\n\t\tset_amount(12)\n\telse :\n\t\tset_amount(6)\n\n\n"

[sub_resource type="GDScript" id=11]

script/source = "\nextends TextureProgress\n\n# member variables here, example:\n# var a=2\n# var b=\"textvar\"\n\nvar start = Vector2()\nvar rot = 0\n\nfunc _ready():\n\t# Called every time the node is added to the scene.\n\t# Initialization here\n\tset_fixed_process(true)\n\tset_min(0)\n\tpass\n\t\nfunc _fixed_process(delta):\n\t\n\tvar hook = get_parent().hook\n\tif hook and get_parent().hooking :\n\t\tset_rotation_deg( rot - 180 )\n\t\tset_max( (hook.get_global_pos() - start).length() )\n\t\tset_val( (hook.get_global_pos() - get_global_pos()).length() + 32 ) # cell size\n\t\tset_scale( Vector2( (hook.get_global_pos() - get_global_pos()).length() / 30.0, 1) ) # 30 is lenght of progressbar while full\n\t\tprint(\"min : \" , get_min() , \" max : \" , get_max() , \" val : \" , get_val() , \" size : \" , get_size() )\n\telse :\n\t\tset_val(0)\n\t\t\n\n\n"

[sub_resource type="SampleLibrary" id=12]

samples/break = { "db":0.0, "pitch":1.0, "sample":ExtResource( 5 ) }
samples/die = { "db":0.0, "pitch":1.0, "sample":ExtResource( 6 ) }
samples/fall = { "db":0.0, "pitch":1.0, "sample":ExtResource( 7 ) }
samples/foot = { "db":0.0, "pitch":1.0, "sample":ExtResource( 8 ) }
samples/hook = { "db":0.0, "pitch":1.0, "sample":ExtResource( 9 ) }

[node name="player" type="RigidBody2D" groups=[ "player" ]]

z/z = 1
input/pickable = false
shapes/0/shape = SubResource( 1 )
shapes/0/transform = Matrix32( 1, 0, 0, 1, 0, 0 )
shapes/0/trigger = false
collision/layers = 1
collision/mask = 1
mode = 0
mass = 60.0
friction = 1.0
bounce = 0.0
gravity_scale = 1.0
custom_integrator = false
continuous_cd = 0
contacts_reported = 0
contact_monitor = true
sleeping = false
can_sleep = true
velocity/linear = Vector2( 0, 0 )
velocity/angular = 0.0
damp_override/linear = -1.0
damp_override/angular = -1.0
script/script = SubResource( 2 )
SPEED = 64.0
HOOK_MULTIPLICATOR = 5.0
hook_range = 160.0

[node name="sprite" type="Sprite" parent="."]

texture = ExtResource( 1 )
hframes = 3
frame = 1

[node name="anim" type="AnimationPlayer" parent="."]

playback/process_mode = 1
playback/default_blend_time = 0.0
root/root = NodePath("..")
anims/die = SubResource( 3 )
anims/fall = SubResource( 4 )
anims/iddle = SubResource( 5 )
anims/walk = SubResource( 6 )
playback/active = true
playback/speed = 1.0
blend_times = [  ]
autoplay = ""
script/script = SubResource( 7 )

[node name="col" type="CollisionShape2D" parent="."]

shape = SubResource( 1 )
trigger = false
_update_shape_index = 0

[node name="light" type="Light2D" parent="."]

enabled = true
texture = ExtResource( 2 )
offset = Vector2( 0, 0 )
scale = 2.5
color = Color( 1, 1, 1, 1 )
energy = 1.0
mode = 0
range/height = 0.0
range/z_min = -1024
range/z_max = 1024
range/layer_min = 0
range/layer_max = 0
range/item_mask = 1
shadow/enabled = true
shadow/color = Color( 0, 0, 0, 0 )
shadow/buffer_size = 2048
shadow/esm_multiplier = 80.0
shadow/item_mask = 1

[node name="camera" type="Camera2D" parent="."]

anchor_mode = 1
rotating = false
current = true
zoom = Vector2( 0.45, 0.45 )
limit/left = -10000000
limit/top = -10000000
limit/right = 10000000
limit/bottom = 10000000
drag_margin/h_enabled = true
drag_margin/v_enabled = true
smoothing/enable = false
smoothing/speed = 5.0
drag_margin/left = 0.1
drag_margin/top = 0.1
drag_margin/right = 0.1
drag_margin/bottom = 0.1

[node name="range" type="Area2D" parent="."]

input/pickable = true
shapes/0/shape = SubResource( 8 )
shapes/0/transform = Matrix32( 1, 0, 0, 1, 0, 0 )
shapes/0/trigger = false
gravity_vec = Vector2( 0, 1 )
gravity = 98.0
linear_damp = 0.1
angular_damp = 1.0

[node name="col" type="CollisionShape2D" parent="range"]

visibility/visible = false
shape = SubResource( 8 )
trigger = false
_update_shape_index = 0

[node name="under" type="Area2D" parent="."]

input/pickable = true
shapes/0/shape = SubResource( 9 )
shapes/0/transform = Matrix32( 1, 0, 0, 1, 0, 0 )
shapes/0/trigger = false
gravity_vec = Vector2( 0, 1 )
gravity = 98.0
linear_damp = 0.1
angular_damp = 1.0

[node name="CollisionShape2D" type="CollisionShape2D" parent="under"]

visibility/visible = false
shape = SubResource( 9 )
trigger = false
_update_shape_index = 0

[node name="foot" type="Particles2D" parent="."]

visibility/behind_parent = true
config/amount = 6
config/lifetime = 2.0
config/local_space = false
config/texture = ExtResource( 3 )
params/direction = 0.0
params/spread = 0.0
params/linear_velocity = 0.0
params/spin_velocity = 0.0
params/orbit_velocity = 0.0
params/gravity_direction = 0.0
params/gravity_strength = 0.0
params/radial_accel = 0.0
params/tangential_accel = 0.0
params/damping = 0.0
params/initial_angle = 0.0
params/initial_size = 1.0
params/final_size = 1.0
params/hue_variation = 0.0
params/anim_speed_scale = 1.0
params/anim_initial_pos = 0.0
color/color = Color( 0.539062, 0.539062, 0.539062, 1 )
script/script = SubResource( 10 )

[node name="hooker" type="TextureProgress" parent="."]

rect/rotation = 180.0
focus/ignore_mouse = false
focus/stop_mouse = false
size_flags/horizontal = 2
size_flags/vertical = 2
margin/left = 0.0
margin/top = 0.0
margin/right = 32.0
margin/bottom = 30.0
range/min = 0.0
range/max = 100.0
range/step = 1.0
range/page = 0.0
range/value = 100.0
range/exp_edit = false
range/rounded = false
texture/under = null
texture/over = null
texture/progress = ExtResource( 4 )
radial_fill/fill_degrees = 360.0
radial_fill/center_offset = Vector2( 0, 0 )
script/script = SubResource( 11 )

[node name="sound" type="SamplePlayer2D" parent="."]

params/volume_db = 0.0
params/pitch_scale = 1.0
params/attenuation/min_distance = 1.0
params/attenuation/max_distance = 2048.0
params/attenuation/distance_exp = 1.0
config/polyphony = 1
config/samples = SubResource( 12 )
config/pitch_random = 0.0


