[gd_scene load_steps=3 format=1]

[sub_resource type="RectangleShape2D" id=2]

custom_solver_bias = 0.0
extents = Vector2( 8, 8 )

[sub_resource type="GDScript" id=1]

script/source = "\nextends Area2D\n\n# member variables here, example:\n# var a=2\n# var b=\"textvar\"\nexport(String) var player_function = \"die\"\nexport var enabled = true\nvar triggered = false\nfunc _ready():\n\t# Called every time the node is added to the scene.\n\t# Initialization here\n\tconnect(\"body_enter\", self, \"_on_body_enter\")\n\tconnect(\"body_exit\", self, \"_on_body_exit\")\n\tset_fixed_process(true)\n\tpass\n\nfunc _fixed_process(delta):\n\tvar over = get_overlapping_bodies()\n\tfor b in over :\n\t\tif b.is_in_group(\"player\")  :\n\t\t\t_on_body_enter(b)\n\n\nfunc _on_body_enter( body ):\n\tif body.is_in_group(\"player\") and not body.hooking :\n\t\ttrigger(body)\n\t\t\n\nfunc trigger(player):\n\tif enabled and not player.safe_from_traps and not triggered: \n\t\tplayer.call( player_function )\n\t\ttriggered = true\n\nfunc _on_body_exit( body ):\n\tif body.is_in_group(\"player\"):\n\t\ttriggered = false"

[node name="trigger" type="Area2D" groups=[ "trigger" ]]

input/pickable = true
shapes/0/shape = SubResource( 2 )
shapes/0/transform = Matrix32( 1, 0, 0, 1, 0, 0 )
shapes/0/trigger = false
gravity_vec = Vector2( 0, 1 )
gravity = 98.0
linear_damp = 0.1
angular_damp = 1.0
script/script = SubResource( 1 )
player_function = "die"
enabled = true

[node name="CollisionPolygon2D" type="CollisionShape2D" parent="."]

shape = SubResource( 2 )
trigger = false
_update_shape_index = 0


