[gd_scene load_steps=5 format=1]

[ext_resource path="res://scenes/bullets/arrow.png" type="Texture" id=1]
[ext_resource path="res://scenes/bullets/bullet_particles.png" type="Texture" id=2]

[sub_resource type="RectangleShape2D" id=2]

custom_solver_bias = 0.0
extents = Vector2( 14, 3 )

[sub_resource type="GDScript" id=1]

script/source = "\nextends RigidBody2D\n\n# member variables here, example:\n# var a=2\n# var b=\"textvar\"\nexport var velocity = Vector2()\nexport var texture_name = \"bullet\"\nvar dead = false\nvar time_dead = 0.0\nconst TIME_AFTER_IMPACT = 1 #seconds\n\nfunc _ready():\n\t# Called every time the node is added to the scene.\n\t# Initialization here\n\tset_fixed_process(true)\n\tpass\n\nfunc _fixed_process(delta):\n\tvar res = Physics2DTestMotionResult.new()\n\tif test_motion( velocity * delta, 0.08, res) :\n\t\tvar col = res.get_collider()\n\t\tif col.has_method(\"die\") and not dead :\n\t\t\tcol.die()\n\t\tif not col.is_in_group(\"bounce\") :\n\t\t\tdead = true\n#\t\t\tqueue_free()\n\t\t\tpass\n\t\n\tif dead :\n\t\ttime_dead += delta\n\t\tif time_dead >= TIME_AFTER_IMPACT:\n\t\t\tqueue_free()\n\nfunc shot():\n\tapply_impulse( Vector2(), velocity) \n\n\n"

[node name="bullet" type="RigidBody2D"]

input/pickable = false
shapes/0/shape = SubResource( 2 )
shapes/0/transform = Matrix32( 1, 0, 0, 1, 0, 0 )
shapes/0/trigger = false
collision/layers = 1
collision/mask = 1
mode = 0
mass = 0.5
friction = 1.0
bounce = 0.0
gravity_scale = 1.0
custom_integrator = false
continuous_cd = 0
contacts_reported = 0
contact_monitor = true
sleeping = false
can_sleep = true
velocity/linear = Vector2( 0, 0 )
velocity/angular = 0.0
damp_override/linear = -1.0
damp_override/angular = -1.0
script/script = SubResource( 1 )
velocity = Vector2( 600, 100 )
texture_name = "arrow"

[node name="sprite" type="Sprite" parent="."]

transform/pos = Vector2( -4.76837e-07, -4.76837e-07 )
texture = ExtResource( 1 )

[node name="col" type="CollisionShape2D" parent="."]

shape = SubResource( 2 )
trigger = false
_update_shape_index = 0

[node name="Particles2D" type="Particles2D" parent="."]

visibility/behind_parent = true
config/amount = 32
config/lifetime = 3.0
config/local_space = false
config/texture = ExtResource( 2 )
params/direction = 0.0
params/spread = 10.0
params/linear_velocity = 0.0
params/spin_velocity = 0.2
params/orbit_velocity = 0.0
params/gravity_direction = 0.0
params/gravity_strength = 5.0
params/radial_accel = 0.0
params/tangential_accel = 0.0
params/damping = 0.0
params/initial_angle = 0.0
params/initial_size = 1.0
params/final_size = 1.5
params/hue_variation = 0.0
params/anim_speed_scale = 1.0
params/anim_initial_pos = 0.0
randomness/direction = 90.0
randomness/spread = 50.0
randomness/gravity_direction = 5.0


