[gd_scene load_steps=16 format=1]

[ext_resource path="res://assets/common/tilesets/pyramid.tres" type="TileSet" id=1]
[ext_resource path="res://scenes/player/player.tscn" type="PackedScene" id=2]
[ext_resource path="res://scenes/over/torch/torch.tscn" type="PackedScene" id=3]
[ext_resource path="res://scenes/over/hook/hook.tscn" type="PackedScene" id=4]
[ext_resource path="res://scenes/platform/platform.tscn" type="PackedScene" id=5]
[ext_resource path="res://scenes/over/doors/door.tscn" type="PackedScene" id=6]
[ext_resource path="res://scenes/teleporter/teleporter.tscn" type="PackedScene" id=7]
[ext_resource path="res://scenes/over/items/item.tscn" type="PackedScene" id=8]
[ext_resource path="res://scenes/over/sign/sign.tscn" type="PackedScene" id=9]
[ext_resource path="res://scenes/GUI/GUI.tscn" type="PackedScene" id=10]

[sub_resource type="GDScript" id=1]

script/source = "\nextends CanvasModulate\n\n# member variables here, example:\n# var a=2\n# var b=\"textvar\"\n\nfunc _ready():\n\t# Called every time the node is added to the scene.\n\t# Initialization here\n\tset_process(true)\n\tget_node(\"/root/persistent\").current_level = 2\n\tpass\n\nfunc _process(delta):\n\tset_color( Color(0,0,0) )\n\t\n"

[sub_resource type="Curve2D" id=2]

bake_interval = 5.0
_data = { "points":Vector2Array( 0, 0, 0, 0, 336, 176, 0, 0, 0, 0, 424, 176, 0, 0, 0, 0, 424, 112, 0, 0, 0, 0, 336, 112, 0, 0, 0, 0, 336, 176 ) }

[sub_resource type="Curve2D" id=3]

bake_interval = 5.0
_data = { "points":Vector2Array( 0, 0, 0, 0, 592, 176, 0, 0, 0, 0, 488, 176, 0, 0, 0, 0, 488, 120, 0, 0, 0, 0, 592, 120, 0, 0, 0, 0, 592, 176 ) }

[sub_resource type="Curve2D" id=4]

bake_interval = 5.0
_data = { "points":Vector2Array( 0, 0, 0, 0, 496, 176, 0, 0, 0, 0, 144, 176 ) }

[sub_resource type="Curve2D" id=5]

bake_interval = 5.0
_data = { "points":Vector2Array( 0, 0, 0, 0, 592, 720, 0, 0, 0, 0, 336, 720, 0, 0, 0, 0, 336, 992, 0, 0, 0, 0, 592, 992, 0, 0, 0, 0, 592, 720 ) }

[node name="level" type="CanvasModulate"]

color = Color( 1, 1, 1, 1 )
script/script = SubResource( 1 )

[node name="under" type="TileMap" parent="." groups=[ "tilemap" ]]

mode = 0
tile_set = ExtResource( 1 )
cell/size = Vector2( 32, 32 )
cell/quadrant_size = 16
cell/custom_transform = Matrix32( 1, 0, 0, 1, 0, 0 )
cell/half_offset = 2
cell/tile_origin = 0
cell/y_sort = false
collision/use_kinematic = false
collision/friction = 1.0
collision/bounce = 0.0
collision/layers = 1
collision/mask = 1
occluder/light_mask = 1
tile_data = IntArray( 131081, 1073741829, 131082, 1073741829, 131083, 1073741829, 131084, 1073741829, 131085, 1073741829, 131086, 1073741829, 131087, 1073741829, 131088, 1073741829, 131089, 1073741829, 131090, 1073741829, 131091, 1073741829, 196617, 1073741829, 196618, 3, 196619, 3, 196620, 3, 196621, 3, 196622, 3, 196623, 3, 196624, 3, 196625, 3, 196626, 1073741824, 196627, 1073741829, 262153, 1073741829, 262154, 3, 262155, 3, 262156, 3, 262157, 3, 262158, 3, 262159, 3, 262160, 3, 262161, 3, 262162, 3, 262163, 1073741829, 327689, 1073741829, 327690, 1073741827, 327691, 3, 327692, 3, 327693, 3, 327694, 3, 327695, 3, 327696, 3, 327697, 3, 327698, 1073741827, 327699, 1073741829, 393225, 1073741829, 393226, 1073741824, 393227, 1073741829, 393228, 3, 393229, 3, 393230, 3, 393231, 3, 393232, 3, 393233, 1073741829, 393234, 1073741824, 393235, 1073741829, 458761, 1073741829, 458762, 1073741824, 458763, 1073741829, 458764, 1073741826, 458765, 1073741824, 458766, 1073741824, 458767, 1073741824, 458768, 1073741826, 458769, 1073741829, 458770, 1073741824, 458771, 1073741829, 524297, 1073741829, 524298, 1073741824, 524299, 1073741829, 524300, 1073741826, 524301, 1073741826, 524302, 1073741826, 524303, 1073741826, 524304, 1073741826, 524305, 1073741829, 524306, 1073741824, 524307, 1073741829, 589833, 1073741829, 589834, 1073741824, 589835, 1073741829, 589836, 1073741829, 589837, 1073741829, 589838, 1073741829, 589839, 1073741829, 589840, 1073741829, 589841, 1073741829, 589842, 1073741824, 589843, 1073741829, 655369, 1073741829, 655370, 1073741824, 655371, 1073741824, 655372, 1073741824, 655373, 1073741824, 655374, 1073741824, 655375, 1073741824, 655376, 1073741824, 655377, 1073741824, 655378, 1073741824, 655379, 1073741829, 720905, 1073741829, 720906, 1073741829, 720907, 1073741829, 720908, 1073741829, 720909, 1073741824, 720910, 1073741824, 720911, 1073741824, 720912, 1073741829, 720913, 1073741829, 720914, 1073741829, 720915, 1073741829, 786443, 1073741826, 786444, 1073741828, 786445, 1073741828, 786446, 1073741824, 786447, 1073741828, 786448, 1073741828, 786449, 1073741826, 851979, 1073741826, 851980, 1073741826, 851981, 1073741829, 851982, 1073741824, 851983, 1073741829, 851984, 1073741826, 851985, 1073741826, 917517, 1073741829, 917518, 1073741824, 917519, 1073741829, 983053, 1073741829, 983054, 1073741824, 983055, 1073741829, 1048581, 1073741827, 1048582, 1073741827, 1048583, 1073741827, 1048584, 1073741826, 1048585, 1073741829, 1048586, 1073741829, 1048587, 1073741829, 1048588, 1073741829, 1048589, 1073741829, 1048590, 0, 1048591, 1073741829, 1048592, 1073741829, 1048593, 1073741829, 1048594, 1073741829, 1048595, 1073741829, 1048596, 1073741829, 1114117, 1073741827, 1114118, 1073741827, 1114119, 1073741827, 1114120, 1073741826, 1114121, 1073741829, 1114122, 0, 1114123, 0, 1114124, 0, 1114125, 0, 1114126, 0, 1114127, 0, 1114128, 0, 1114129, 0, 1114130, 0, 1114131, 1073741829, 1114132, 1073741829, 1179653, 1073741827, 1179654, 1073741827, 1179655, 1073741827, 1179656, 1073741826, 1179657, 1073741829, 1179658, 0, 1179659, 0, 1179660, 0, 1179661, 0, 1179662, 0, 1179663, 0, 1179664, 0, 1179665, 0, 1179666, 0, 1179667, 1073741829, 1179668, 1073741826, 1245189, 1073741827, 1245190, 1073741827, 1245191, 1073741827, 1245192, 1073741827, 1245193, 1073741827, 1245194, 1073741827, 1245195, 1073741827, 1245196, 1073741827, 1245197, 1073741827, 1245198, 1073741827, 1245199, 1073741827, 1245200, 1073741827, 1245201, 1073741827, 1245202, 1073741827, 1245203, 1073741829, 1245204, 1073741826, 1310725, 1073741827, 1310726, 1073741827, 1310727, 1073741827, 1310728, 1073741826, 1310729, 1, 1310730, 0, 1310731, 0, 1310732, 0, 1310733, 0, 1310734, 0, 1310735, 0, 1310736, 0, 1310737, 0, 1310738, 0, 1310739, 1073741829, 1310740, 1073741829, 1376261, 1073741827, 1376262, 1073741827, 1376263, 1073741827, 1376264, 1073741826, 1376265, 1, 1376266, 0, 1376267, 0, 1376268, 0, 1376269, 0, 1376270, 0, 1376271, 0, 1376272, 0, 1376273, 0, 1376274, 0, 1376275, 1073741829, 1376276, 1073741829, 1441797, 1073741827, 1441798, 1073741827, 1441799, 1073741827, 1441800, 1073741827, 1441801, 1, 1441802, 3, 1441803, 3, 1441804, 3, 1441805, 3, 1441806, 3, 1441807, 3, 1441808, 3, 1441809, 3, 1441810, 3, 1441811, 1073741829, 1441812, 1073741826, 1507337, 1, 1507338, 3, 1507339, 3, 1507340, 3, 1507341, 3, 1507342, 3, 1507343, 3, 1507344, 3, 1507345, 3, 1507346, 3, 1507347, 1073741829, 1572873, 3, 1572874, 3, 1572875, 3, 1572876, 3, 1572877, 3, 1572878, 3, 1572879, 3, 1572880, 3, 1572881, 3, 1572882, 3, 1572883, 3, 1638409, 3, 1638410, 3, 1638411, 3, 1638412, 3, 1638413, 3, 1638414, 3, 1638415, 3, 1638416, 3, 1638417, 3, 1638418, 3, 1638419, 3, 1703945, 3, 1703946, 3, 1703947, 3, 1703948, 3, 1703949, 3, 1703950, 3, 1703951, 3, 1703952, 3, 1703953, 3, 1703954, 3, 1703955, 3, 1769481, 3, 1769482, 3, 1769483, 3, 1769484, 3, 1769485, 3, 1769486, 1073741824, 1769487, 3, 1769488, 3, 1769489, 3, 1769490, 3, 1769491, 3, 1835017, 3, 1835018, 3, 1835019, 3, 1835020, 3, 1835021, 3, 1835022, 1073741824, 1835023, 3, 1835024, 3, 1835025, 3, 1835026, 3, 1835027, 3, 1900553, 3, 1900554, 3, 1900555, 3, 1900556, 3, 1900557, 3, 1900558, 3, 1900559, 3, 1900560, 3, 1900561, 3, 1900562, 3, 1900563, 3, 1966089, 3, 1966090, 3, 1966091, 3, 1966092, 3, 1966093, 3, 1966094, 3, 1966095, 3, 1966096, 3, 1966097, 3, 1966098, 3, 1966099, 3, 2031625, 3, 2031626, 3, 2031627, 3, 2031628, 3, 2031629, 3, 2031630, 3, 2031631, 3, 2031632, 3, 2031633, 3, 2031634, 3, 2031635, 3, 2097161, 1073741827, 2097162, 1073741827, 2097163, 1073741827, 2097164, 1073741827, 2097165, 1073741827, 2097166, 1073741827, 2097167, 1073741827, 2097168, 1073741827, 2097169, 1073741827, 2097170, 1073741827, 2097171, 1073741827, 2162699, 1073741826, 2162700, 1073741829, 2162701, 1073741824, 2162702, 1073741824, 2162703, 1073741824, 2162704, 1073741829, 2162705, 1073741826, 2228235, 1073741826, 2228236, 1073741829, 2228237, 1073741829, 2228238, 1073741824, 2228239, 1073741826, 2228240, 1073741829, 2228241, 1073741826, 2293771, 1073741826, 2293772, 1073741826, 2293773, 1073741826, 2293774, 1073741824, 2293777, 1073741826, 2359307, 0, 2359308, 0, 2359309, 0, 2359310, 1073741824, 2359312, 1073741824, 2359313, 1073741824, 2359314, 1073741824, 2359315, 1073741824, 2359316, 1073741824, 2359317, 1073741824, 2424843, 0, 2424844, 0, 2424845, 0, 2424846, 0, 2424853, 1073741824, 2490382, 1073741824, 2490389, 1073741824, 2555918, 1073741824, 2555919, 1073741824, 2555920, 1073741824, 2555921, 1073741824, 2555922, 1073741824, 2555923, 1073741824, 2555924, 1073741824, 2555925, 1073741824 )

[node name="player" parent="." instance=ExtResource( 2 )]

transform/pos = Vector2( 456, 336 )

[node name="spawn" type="Position2D" parent="."]

transform/pos = Vector2( 458, 338 )

[node name="torsch" type="Node2D" parent="."]

editor/display_folded = true

[node name="torch1" parent="torsch" instance=ExtResource( 3 )]

transform/pos = Vector2( 464, 896 )

[node name="torch2" parent="torsch" instance=ExtResource( 3 )]

transform/pos = Vector2( 464, 88 )
enabled = true

[node name="torch3" parent="torsch" instance=ExtResource( 3 )]

transform/pos = Vector2( 320, 272 )

[node name="torch4" parent="torsch" instance=ExtResource( 3 )]

transform/pos = Vector2( 608, 272 )

[node name="torch5" parent="torsch" instance=ExtResource( 3 )]

transform/pos = Vector2( 416, 240 )

[node name="torch6" parent="torsch" instance=ExtResource( 3 )]

transform/pos = Vector2( 480, 472 )

[node name="torch7" parent="torsch" instance=ExtResource( 3 )]

transform/pos = Vector2( 608, 592 )

[node name="torch8" parent="torsch" instance=ExtResource( 3 )]

transform/pos = Vector2( 320, 592 )

[node name="torch9" parent="torsch" instance=ExtResource( 3 )]

transform/pos = Vector2( 608, 688 )

[node name="torch10" parent="torsch" instance=ExtResource( 3 )]

transform/pos = Vector2( 320, 696 )

[node name="torch11" parent="torsch" instance=ExtResource( 3 )]

transform/pos = Vector2( 480, 912 )
enabled = true

[node name="torch12" parent="torsch" instance=ExtResource( 3 )]

transform/pos = Vector2( 504, 1072 )
enabled = true

[node name="hooks" type="Node2D" parent="."]

editor/display_folded = true

[node name="hook1" parent="hooks" instance=ExtResource( 4 )]

transform/pos = Vector2( 464, 912 )
single_use = true

[node name="hook4" parent="hooks" instance=ExtResource( 4 )]

transform/pos = Vector2( 496, 240 )
single_use = true

[node name="hook2" parent="hooks" instance=ExtResource( 4 )]

transform/pos = Vector2( 464, 1072 )

[node name="hook3" parent="hooks" instance=ExtResource( 4 )]

transform/pos = Vector2( 528, 1168 )
single_use = true

[node name="platforms" type="Node2D" parent="."]

editor/display_folded = true

[node name="Path2D" type="Path2D" parent="platforms"]

curve = SubResource( 2 )

[node name="platform" parent="platforms/Path2D" instance=ExtResource( 5 )]

transform/pos = Vector2( 336, 176 )
transform/rot = 0.000668739
SPEED = 64

[node name="hook5" parent="platforms/Path2D/platform" instance=ExtResource( 4 )]

transform/pos = Vector2( -7.62939e-06, -5.72205e-06 )
transform/rot = -0.000668739
single_use = true

[node name="Path2D 3" type="Path2D" parent="platforms"]

curve = SubResource( 3 )

[node name="platform" parent="platforms/Path2D 3" instance=ExtResource( 5 )]

transform/pos = Vector2( 592, 176 )
transform/rot = -180.0
SPEED = 64

[node name="Path2D1" type="Path2D" parent="platforms"]

transform/pos = Vector2( 96, 448 )
curve = SubResource( 4 )

[node name="platform" parent="platforms/Path2D1" instance=ExtResource( 5 )]

transform/pos = Vector2( 496, 176 )
transform/rot = -180.0
SPEED = 90

[node name="Path2D 2" type="Path2D" parent="platforms"]

curve = SubResource( 5 )

[node name="platform" parent="platforms/Path2D 2" instance=ExtResource( 5 )]

transform/pos = Vector2( 592, 720 )
transform/rot = -180.0
rotate = false
SPEED = 90

[node name="hook" parent="platforms/Path2D 2/platform" instance=ExtResource( 4 )]

[node name="doors" type="Node2D" parent="."]

[node name="door" parent="doors" instance=ExtResource( 6 )]

transform/pos = Vector2( 464, 400 )
transform/rot = -180.0
blocked = true
group = "1"

[node name="item" parent="doors/door"]

transform/pos = Vector2( -128, 288 )

[node name="door 2" parent="doors" instance=ExtResource( 6 )]

transform/pos = Vector2( 464, 1096 )
blocked = true
group = "2"

[node name="item" parent="doors/door 2"]

transform/pos = Vector2( 0, -216 )

[node name="teleporter" parent="." instance=ExtResource( 7 )]

transform/pos = Vector2( 408, 1160 )
destination_scene = "stage_3"

[node name="coins" type="Node2D" parent="."]

editor/display_folded = true

[node name="item" parent="coins" instance=ExtResource( 8 )]

transform/pos = Vector2( 560, 1168 )
item_texture_name = "coin"

[node name="item1" parent="coins" instance=ExtResource( 8 )]

transform/pos = Vector2( 464, 240 )
item_texture_name = "coin"

[node name="sign" parent="." instance=ExtResource( 9 )]

transform/pos = Vector2( 336, 672 )
text = "PAY_ATTENTION"

[node name="GUI" parent="." instance=ExtResource( 10 )]


[editable path="doors/door"]
[editable path="doors/door 2"]
