[gd_scene load_steps=16 format=1]

[ext_resource path="res://scenes/player/player.tscn" type="PackedScene" id=1]
[ext_resource path="res://assets/common/tilesets/pyramid.tres" type="TileSet" id=2]
[ext_resource path="res://scenes/over/torch/torch.tscn" type="PackedScene" id=3]
[ext_resource path="res://scenes/over/doors/door.tscn" type="PackedScene" id=4]
[ext_resource path="res://scenes/dispenser/dispenser.tscn" type="PackedScene" id=5]
[ext_resource path="res://scenes/over/hook/hook.tscn" type="PackedScene" id=6]
[ext_resource path="res://scenes/teleporter/teleporter.tscn" type="PackedScene" id=7]
[ext_resource path="res://scenes/over/items/item.tscn" type="PackedScene" id=8]
[ext_resource path="res://scenes/GUI/GUI.tscn" type="PackedScene" id=9]

[sub_resource type="GDScript" id=1]

script/source = "\nextends CanvasModulate\n\n# member variables here, example:\n# var a=2\n# var b=\"textvar\"\n\nfunc _ready():\n\t# Called every time the node is added to the scene.\n\t# Initialization here\n\tset_process(true)\n\tget_node(\"/root/persistent\").current_level = 3\n\tpass\n\nfunc _process(delta):\n\tset_color( Color(0,0,0) )\n\t\n"

[sub_resource type="GDScript" id=2]

script/source = "\nextends StaticBody2D\n\n# member variables here, example:\n# var a=2\n# var b=\"textvar\"\nexport(String, \"LEFT\", \"RIGHT\", \"UP\", \"DOWN\") var direction\nexport var cooldown = 2.0 # seconds\nexport var BULLET_SPEED = 600.0\nexport var curr = 0.0\nexport var bullet_texture_name = \"rock\"\n\nfunc _ready():\n\t# Called every time the node is added to the scene.\n\t# Initialization here\n\tif direction == \"LEFT\" :\n\t\tpass\n\telif direction == \"RIGHT\":\n\t\tget_node(\"sprite\").set_rot(PI)\n\telif direction == \"UP\":\n\t\tget_node(\"sprite\").set_rot(-PI/2.0)\n\telif direction == \"DOWN\":\n\t\tget_node(\"sprite\").set_rot(PI/2.0)\n\t\t\n\tset_process(true)\n\tpass\n\t\nfunc _process(delta):\n\tcurr += delta\n\tif curr >= cooldown:\n\t\tcurr = 0\n\t\tshot()\n\t\t\nfunc shot():\n\tvar bullet = ResourceLoader.load(\"res://scenes/bullets/\"+bullet_texture_name+\".tscn\").instance()\n\tvar dir = Vector2()\n\tif direction == \"UP\" : dir = Vector2(0.0,-1.0)\n\telif direction == \"DOWN\" : dir = Vector2(0.0,1.0)\n\telif direction == \"LEFT\" : dir = Vector2(-1.0,0.0)\n\telse : dir = Vector2(1.0,0.0)\n\tbullet.velocity = dir * BULLET_SPEED\n\tbullet.set_rot( dir.angle_to(Vector2(1,0) ) )\n\t\n\tadd_child(bullet)\n\tbullet.shot()\n\tget_node(\"sound\").play(\"throw\")\n\tpass\n\n\n"

[sub_resource type="GDScript" id=3]

script/source = "\nextends StaticBody2D\n\n# member variables here, example:\n# var a=2\n# var b=\"textvar\"\nexport(String, \"LEFT\", \"RIGHT\", \"UP\", \"DOWN\") var direction\nexport var cooldown = 2.0 # seconds\nexport var BULLET_SPEED = 600.0\nexport var curr = 0.0\nexport var bullet_texture_name = \"rock\"\n\nfunc _ready():\n\t# Called every time the node is added to the scene.\n\t# Initialization here\n\tif direction == \"LEFT\" :\n\t\tpass\n\telif direction == \"RIGHT\":\n\t\tget_node(\"sprite\").set_rot(PI)\n\telif direction == \"UP\":\n\t\tget_node(\"sprite\").set_rot(-PI/2.0)\n\telif direction == \"DOWN\":\n\t\tget_node(\"sprite\").set_rot(PI/2.0)\n\t\t\n\tset_process(true)\n\tpass\n\t\nfunc _process(delta):\n\tcurr += delta\n\tif curr >= cooldown:\n\t\tcurr = 0\n\t\tshot()\n\t\t\nfunc shot():\n\tvar bullet = ResourceLoader.load(\"res://scenes/bullets/\"+bullet_texture_name+\".tscn\").instance()\n\tvar dir = Vector2()\n\tif direction == \"UP\" : dir = Vector2(0.0,-1.0)\n\telif direction == \"DOWN\" : dir = Vector2(0.0,1.0)\n\telif direction == \"LEFT\" : dir = Vector2(-1.0,0.0)\n\telse : dir = Vector2(1.0,0.0)\n\tbullet.velocity = dir * BULLET_SPEED\n\tbullet.set_rot( dir.angle_to(Vector2(1,0) ) )\n\t\n\tadd_child(bullet)\n\tbullet.shot()\n\tget_node(\"sound\").play(\"throw\")\n\tpass\n\n\n"

[sub_resource type="GDScript" id=4]

script/source = "\nextends StaticBody2D\n\n# member variables here, example:\n# var a=2\n# var b=\"textvar\"\nexport(String, \"LEFT\", \"RIGHT\", \"UP\", \"DOWN\") var direction\nexport var cooldown = 2.0 # seconds\nexport var BULLET_SPEED = 600.0\nexport var curr = 0.0\nexport var bullet_texture_name = \"rock\"\n\nfunc _ready():\n\t# Called every time the node is added to the scene.\n\t# Initialization here\n\tif direction == \"LEFT\" :\n\t\tpass\n\telif direction == \"RIGHT\":\n\t\tget_node(\"sprite\").set_rot(PI)\n\telif direction == \"UP\":\n\t\tget_node(\"sprite\").set_rot(-PI/2.0)\n\telif direction == \"DOWN\":\n\t\tget_node(\"sprite\").set_rot(PI/2.0)\n\t\t\n\tset_process(true)\n\tpass\n\t\nfunc _process(delta):\n\tcurr += delta\n\tif curr >= cooldown:\n\t\tcurr = 0\n\t\tshot()\n\t\t\nfunc shot():\n\tvar bullet = ResourceLoader.load(\"res://scenes/bullets/\"+bullet_texture_name+\".tscn\").instance()\n\tvar dir = Vector2()\n\tif direction == \"UP\" : dir = Vector2(0.0,-1.0)\n\telif direction == \"DOWN\" : dir = Vector2(0.0,1.0)\n\telif direction == \"LEFT\" : dir = Vector2(-1.0,0.0)\n\telse : dir = Vector2(1.0,0.0)\n\tbullet.velocity = dir * BULLET_SPEED\n\tbullet.set_rot( dir.angle_to(Vector2(1,0) ) )\n\t\n\tadd_child(bullet)\n\tbullet.shot()\n\tget_node(\"sound\").play(\"throw\")\n\t\n\tpass\n\n\n"

[sub_resource type="GDScript" id=5]

script/source = "\nextends StaticBody2D\n\n# member variables here, example:\n# var a=2\n# var b=\"textvar\"\nexport(String, \"LEFT\", \"RIGHT\", \"UP\", \"DOWN\") var direction\nexport var cooldown = 2.0 # seconds\nexport var BULLET_SPEED = 600.0\nexport var curr = 0.0\nexport var bullet_texture_name = \"rock\"\n\nfunc _ready():\n\t# Called every time the node is added to the scene.\n\t# Initialization here\n\tif direction == \"LEFT\" :\n\t\tpass\n\telif direction == \"RIGHT\":\n\t\tget_node(\"sprite\").set_rot(PI)\n\telif direction == \"UP\":\n\t\tget_node(\"sprite\").set_rot(-PI/2.0)\n\telif direction == \"DOWN\":\n\t\tget_node(\"sprite\").set_rot(PI/2.0)\n\t\t\n\tset_process(true)\n\tpass\n\t\nfunc _process(delta):\n\tcurr += delta\n\tif curr >= cooldown:\n\t\tcurr = 0\n\t\tshot()\n\t\t\nfunc shot():\n\tvar bullet = ResourceLoader.load(\"res://scenes/bullets/\"+bullet_texture_name+\".tscn\").instance()\n\tvar dir = Vector2()\n\tif direction == \"UP\" : dir = Vector2(0.0,-1.0)\n\telif direction == \"DOWN\" : dir = Vector2(0.0,1.0)\n\telif direction == \"LEFT\" : dir = Vector2(-1.0,0.0)\n\telse : dir = Vector2(1.0,0.0)\n\tbullet.velocity = dir * BULLET_SPEED\n\tbullet.set_rot( dir.angle_to(Vector2(1,0) ) )\n\t\n\tadd_child(bullet)\n\tbullet.shot()\n\tget_node(\"sound\").play(\"throw\")\n\tpass\n\n\n"

[sub_resource type="GDScript" id=6]

script/source = "\nextends StaticBody2D\n\n# member variables here, example:\n# var a=2\n# var b=\"textvar\"\nexport(String, \"LEFT\", \"RIGHT\", \"UP\", \"DOWN\") var direction\nexport var cooldown = 2.0 # seconds\nexport var BULLET_SPEED = 600.0\nexport var curr = 0.0\nexport var bullet_texture_name = \"rock\"\n\nfunc _ready():\n\t# Called every time the node is added to the scene.\n\t# Initialization here\n\tif direction == \"LEFT\" :\n\t\tpass\n\telif direction == \"RIGHT\":\n\t\tget_node(\"sprite\").set_rot(PI)\n\telif direction == \"UP\":\n\t\tget_node(\"sprite\").set_rot(-PI/2.0)\n\telif direction == \"DOWN\":\n\t\tget_node(\"sprite\").set_rot(PI/2.0)\n\t\t\n\tset_process(true)\n\tpass\n\t\nfunc _process(delta):\n\tcurr += delta\n\tif curr >= cooldown:\n\t\tcurr = 0\n\t\tshot()\n\t\t\nfunc shot():\n\tvar bullet = ResourceLoader.load(\"res://scenes/bullets/\"+bullet_texture_name+\".tscn\").instance()\n\tvar dir = Vector2()\n\tif direction == \"UP\" : dir = Vector2(0.0,-1.0)\n\telif direction == \"DOWN\" : dir = Vector2(0.0,1.0)\n\telif direction == \"LEFT\" : dir = Vector2(-1.0,0.0)\n\telse : dir = Vector2(1.0,0.0)\n\tbullet.velocity = dir * BULLET_SPEED\n\tbullet.set_rot( dir.angle_to(Vector2(1,0) ) )\n\t\n\tadd_child(bullet)\n\tbullet.shot()\n\tget_node(\"sound\").play(\"throw\")\n\tpass\n\n\n"

[node name="level" type="CanvasModulate"]

color = Color( 1, 1, 1, 1 )
script/script = SubResource( 1 )

[node name="player" parent="." instance=ExtResource( 1 )]

transform/pos = Vector2( 504, 384 )
mass = 25.0

[node name="under" type="TileMap" parent="." groups=[ "tilemap" ]]

mode = 0
tile_set = ExtResource( 2 )
cell/size = Vector2( 32, 32 )
cell/quadrant_size = 16
cell/custom_transform = Matrix32( 1, 0, 0, 1, 0, 0 )
cell/half_offset = 2
cell/tile_origin = 0
cell/y_sort = false
collision/use_kinematic = false
collision/friction = 1.0
collision/bounce = 0.0
collision/layers = 1
collision/mask = 1
occluder/light_mask = 1
tile_data = IntArray( 15, 1073741829, 16, 1073741829, 17, 1073741829, 18, 1073741829, 19, 1073741829, 20, 1073741829, 65551, 1073741829, 65552, 1073741824, 65553, 1073741824, 65554, 1073741824, 65555, 1073741824, 65556, 1073741829, 131087, 1073741829, 131088, 1073741824, 131089, 1073741824, 131090, 1073741829, 131091, 1073741824, 131092, 1073741829, 131093, 1073741829, 131094, 1073741829, 131095, 1073741829, 131096, 1073741829, 131097, 1073741829, 196623, 1073741829, 196624, 1073741824, 196625, 1073741827, 196626, 1073741825, 196627, 1073741824, 196628, 1073741824, 196629, 1073741824, 196630, 1073741824, 196631, 1073741824, 196632, 1073741824, 196633, 1073741829, 262159, 1073741829, 262160, 1073741824, 262161, 1073741827, 262162, 1073741829, 262163, 1073741829, 262164, 1073741825, 262165, 1073741827, 262166, 1073741827, 262167, 1073741827, 262168, 1073741827, 262169, 1073741829, 262170, 1073741829, 327695, 1073741829, 327696, 1073741824, 327697, 1073741827, 327698, 1073741829, 327699, 1073741824, 327700, 1073741825, 327701, 1073741824, 327702, 1073741828, 327703, 1073741828, 327704, 1073741824, 327705, 1073741824, 327706, 1073741829, 327707, 1073741826, 327708, 1073741826, 393231, 1073741829, 393232, 1073741829, 393233, 1073741824, 393234, 1073741829, 393235, 1073741824, 393236, 1073741825, 393237, 1073741827, 393238, 1073741827, 393239, 1073741827, 393240, 1073741827, 393241, 1073741824, 393242, 1073741829, 393243, 1073741826, 393244, 1073741826, 458768, 1073741829, 458769, 1073741824, 458770, 1073741829, 458771, 1073741824, 458772, 1073741825, 458773, 1073741824, 458774, 1073741824, 458775, 1073741824, 458776, 1073741824, 458777, 1073741825, 458778, 1073741828, 458779, 1073741828, 458780, 1073741828, 524304, 1073741829, 524305, 1073741824, 524306, 1073741824, 524307, 1073741824, 524308, 1073741825, 524309, 1073741827, 524310, 1073741827, 524311, 1073741827, 524312, 1073741827, 524313, 1073741825, 524314, 1073741824, 524315, 1073741824, 524316, 1073741829, 589840, 1073741829, 589841, 1073741824, 589842, 1073741827, 589843, 1073741829, 589844, 1073741825, 589845, 1073741824, 589846, 1073741824, 589847, 1073741824, 589848, 1073741824, 589849, 1073741824, 589850, 1073741824, 589851, 1073741824, 589852, 1073741829, 655374, 1073741829, 655375, 1073741829, 655376, 1073741829, 655377, 1073741824, 655378, 1073741829, 655379, 1073741829, 655380, 1073741825, 655381, 1073741827, 655382, 1073741827, 655383, 1073741827, 655384, 1073741827, 655385, 1073741825, 655386, 1073741824, 655387, 1073741824, 655388, 1073741829, 720910, 1073741829, 720911, 1073741824, 720912, 1073741824, 720913, 1073741824, 720914, 1073741829, 720915, 1073741824, 720916, 1073741825, 720917, 1073741824, 720918, 1073741824, 720919, 1073741824, 720920, 1073741824, 720921, 1073741825, 720922, 1073741829, 720923, 1073741829, 720924, 1073741829, 786446, 1073741829, 786447, 1073741824, 786448, 1073741824, 786449, 1073741824, 786450, 1073741824, 786451, 1073741824, 786452, 1073741825, 786453, 1073741826, 786454, 1073741826, 786455, 1073741826, 786456, 1073741826, 786457, 1073741828, 786458, 1073741826, 786459, 1073741826, 786460, 1073741826, 851982, 1073741829, 851983, 1073741829, 851984, 1073741829, 851985, 1073741827, 851986, 1073741829, 851987, 1073741824, 851988, 1073741829, 851989, 1073741829, 851990, 1073741829, 851991, 1073741829, 851992, 1073741829, 851993, 1073741829, 851994, 1073741826, 851995, 1073741826, 851996, 1073741826, 917520, 1073741829, 917521, 1073741829, 917522, 1073741829, 917523, 1073741824, 917524, 1073741824, 917525, 1073741824, 917526, 1073741824, 917527, 1073741824, 917528, 1073741824, 917529, 1073741824, 917530, 1073741829, 983058, 1073741829, 983059, 1073741829, 983060, 1073741829, 983061, 1073741829, 983062, 1073741829, 983063, 1073741829, 983064, 1073741829, 983065, 1073741829, 983066, 1073741829 )

[node name="torch" type="Node2D" parent="."]

editor/display_folded = true

[node name="torch" parent="torch" instance=ExtResource( 3 )]

transform/pos = Vector2( 592, 256 )

[node name="torch1" parent="torch" instance=ExtResource( 3 )]

transform/pos = Vector2( 800, 112 )

[node name="doors" type="Node2D" parent="."]

[node name="door" parent="doors" instance=ExtResource( 4 )]

editor/display_folded = true
transform/pos = Vector2( 816, 304 )
transform/rot = -90.0
blocked = true
group = "1"

[node name="item" parent="doors/door"]

transform/pos = Vector2( -128, 0 )

[node name="door1" parent="doors" instance=ExtResource( 4 )]

editor/display_folded = true
transform/pos = Vector2( 592, 400 )
transform/rot = -90.0
group = ""

[node name="door2" parent="doors" instance=ExtResource( 4 )]

editor/display_folded = true
transform/pos = Vector2( 592, 272 )
transform/rot = -90.0
group = ""

[node name="platforms" type="Node2D" parent="."]

[node name="dispenser" type="Node2D" parent="."]

[node name="dispenser" parent="dispenser" instance=ExtResource( 5 )]

transform/pos = Vector2( 688, 368 )
script/script = SubResource( 2 )
direction = "UP"
curr = 1.0
bullet_texture_name = "arrow"

[node name="dispenser4" parent="dispenser" instance=ExtResource( 5 )]

transform/pos = Vector2( 560, 80 )
script/script = SubResource( 3 )
BULLET_SPEED = 120.0

[node name="dispenser1" parent="dispenser" instance=ExtResource( 5 )]

transform/pos = Vector2( 720, 368 )
script/script = SubResource( 4 )
direction = "UP"
bullet_texture_name = "arrow"

[node name="dispenser2" parent="dispenser" instance=ExtResource( 5 )]

transform/pos = Vector2( 752, 368 )
script/script = SubResource( 5 )
direction = "UP"
curr = 1.0
bullet_texture_name = "arrow"

[node name="dispenser3" parent="dispenser" instance=ExtResource( 5 )]

transform/pos = Vector2( 784, 368 )
script/script = SubResource( 6 )
direction = "UP"
bullet_texture_name = "arrow"

[node name="hooks" type="Node2D" parent="."]

editor/display_folded = true
transform/pos = Vector2( 56, 96 )

[node name="hook" parent="hooks" instance=ExtResource( 6 )]

transform/pos = Vector2( 632, 80 )

[node name="hook4" parent="hooks" instance=ExtResource( 6 )]

transform/pos = Vector2( 472, 48 )

[node name="hook1" parent="hooks" instance=ExtResource( 6 )]

transform/pos = Vector2( 704, 144 )

[node name="hook2" parent="hooks" instance=ExtResource( 6 )]

transform/pos = Vector2( 704, 208 )

[node name="hook3" parent="hooks" instance=ExtResource( 6 )]

transform/pos = Vector2( 728, 80 )

[node name="spawn" type="Position2D" parent="."]

transform/pos = Vector2( 506, 386 )

[node name="teleporter" parent="." instance=ExtResource( 7 )]

transform/pos = Vector2( 864, 264 )
destination_scene = "stage_4"

[node name="coins" type="Node2D" parent="."]

[node name="item" parent="coins" instance=ExtResource( 8 )]

transform/pos = Vector2( 624, 368 )
item_texture_name = "coin"
signal_name = ""
group_name = ""

[node name="item1" parent="coins" instance=ExtResource( 8 )]

transform/pos = Vector2( 624, 176 )
item_texture_name = "coin"
signal_name = ""
group_name = ""

[node name="item2" parent="coins" instance=ExtResource( 8 )]

transform/pos = Vector2( 688, 304 )
item_texture_name = "coin"
signal_name = ""
group_name = ""

[node name="item3" parent="coins" instance=ExtResource( 8 )]

transform/pos = Vector2( 816, 464 )
item_texture_name = "coin"
signal_name = ""
group_name = ""

[node name="GUI" parent="." instance=ExtResource( 9 )]


[editable path="doors/door"]
