[gd_scene load_steps=12 format=1]

[ext_resource path="res://assets/common/tilesets/pyramid.tres" type="TileSet" id=1]
[ext_resource path="res://scenes/over/items/item.tscn" type="PackedScene" id=2]
[ext_resource path="res://scenes/player/player.tscn" type="PackedScene" id=3]
[ext_resource path="res://scenes/over/torch/torch.tscn" type="PackedScene" id=4]
[ext_resource path="res://scenes/over/sign/sign.tscn" type="PackedScene" id=5]
[ext_resource path="res://scenes/over/doors/door.tscn" type="PackedScene" id=6]
[ext_resource path="res://scenes/over/hook/hook.tscn" type="PackedScene" id=7]
[ext_resource path="res://scenes/teleporter/teleporter.tscn" type="PackedScene" id=8]
[ext_resource path="res://scenes/GUI/GUI.tscn" type="PackedScene" id=9]

[sub_resource type="GDScript" id=1]

script/source = "\nextends CanvasModulate\n\n# member variables here, example:\n# var a=2\n# var b=\"textvar\"\n\nfunc _ready():\n\t# Called every time the node is added to the scene.\n\t# Initialization here\n\tset_process(true)\n\tget_node(\"/root/persistent\").current_level = 0\n\tpass\n\nfunc _process(delta):\n\tset_color( Color(0,0,0) )\n\t\n"

[sub_resource type="GDScript" id=2]

script/source = "\nextends Label\n\n# member variables here, example:\n# var a=2\n# var b=\"textvar\"\n\nfunc _ready():\n\t# Called every time the node is added to the scene.\n\t# Initialization here\n\tset_text( tr(\"TUTO_SIGN\")) \n\tpass\n\n\n"

[node name="CanvasModulate" type="CanvasModulate"]

color = Color( 1, 1, 1, 1 )
script/script = SubResource( 1 )

[node name="under" type="TileMap" parent="." groups=[ "tilemap" ]]

mode = 0
tile_set = ExtResource( 1 )
cell/size = Vector2( 32, 32 )
cell/quadrant_size = 16
cell/custom_transform = Matrix32( 1, 0, 0, 1, 0, 0 )
cell/half_offset = 2
cell/tile_origin = 0
cell/y_sort = false
collision/use_kinematic = false
collision/friction = 1.0
collision/bounce = 0.0
collision/layers = 2
collision/mask = 1
occluder/light_mask = 3
tile_data = IntArray( -131065, 1073741829, -131064, 1073741829, -131063, 1073741829, -131062, 1073741829, -131061, 1073741829, -65529, 1073741829, -65528, 0, -65527, 0, -65526, 0, -65525, 1073741829, 7, 1073741829, 8, 0, 9, 0, 10, 0, 11, 1073741829, 65543, 1073741829, 65544, 0, 65545, 0, 65546, 0, 65547, 1073741829, 131076, 1073741828, 131077, 1073741828, 131078, 1073741828, 131079, 1073741828, 131080, 1073741828, 131081, 0, 131082, 1073741828, 131083, 1073741828, 131084, 1073741828, 131085, 1073741828, 131086, 1073741828, 196612, 1073741829, 196613, 0, 196614, 0, 196615, 0, 196616, 0, 196617, 0, 196618, 0, 196619, 0, 196620, 0, 196621, 0, 196622, 1073741825, 327679, 1073741829, 262144, 1073741829, 262145, 1073741829, 262146, 1073741829, 262147, 1073741829, 262148, 1073741829, 262149, 0, 262150, 0, 262151, 0, 262152, 0, 262153, 0, 262154, 0, 262155, 0, 262156, 0, 262157, 0, 262158, 1073741825, 262159, 1073741829, 262160, 1073741829, 262161, 1073741829, 262162, 1073741829, 262163, 1073741829, 393215, 1073741829, 327680, 0, 327681, 0, 327682, 0, 327683, 0, 327684, 0, 327685, 0, 327686, 0, 327687, 0, 327688, 0, 327689, 1073741824, 327690, 0, 327691, 0, 327692, 0, 327693, 0, 327694, 1073741825, 327695, 0, 327696, 0, 327697, 0, 327698, 0, 327699, 1073741829, 458751, 1073741829, 393216, 0, 393217, 0, 393218, 0, 393219, 0, 393220, 0, 393221, 0, 393222, 0, 393223, 0, 393224, 0, 393225, 0, 393226, 0, 393227, 0, 393228, 0, 393229, 0, 393230, 1073741825, 393231, 0, 393232, 0, 393233, 0, 393234, 0, 393235, 1073741829, 524287, 1073741829, 458752, 0, 458753, 0, 458754, 0, 458755, 0, 458756, 0, 458757, 0, 458758, 0, 458759, 0, 458760, 0, 458761, 0, 458762, 0, 458763, 0, 458764, 0, 458765, 0, 458766, 0, 458767, 0, 458768, 0, 458769, 1073741827, 458770, 0, 458771, 1073741829, 589823, 1073741829, 524288, 0, 524289, 0, 524290, 0, 524291, 0, 524292, 0, 524293, 0, 524294, 0, 524295, 0, 524296, 0, 524297, 0, 524298, 0, 524299, 0, 524300, 0, 524301, 0, 524302, 1073741825, 524303, 0, 524304, 1073741824, 524305, 0, 524306, 0, 524307, 1073741829, 655359, 1073741829, 589824, 1073741829, 589825, 1073741829, 589826, 1073741829, 589827, 1073741829, 589828, 1073741829, 589829, 0, 589830, 0, 589831, 0, 589832, 0, 589833, 0, 589834, 0, 589835, 0, 589836, 0, 589837, 0, 589838, 1073741825, 589839, 1073741829, 589840, 1073741829, 589841, 1073741829, 589842, 1073741829, 589843, 1073741829, 655364, 1073741829, 655365, 0, 655366, 0, 655367, 0, 655368, 0, 655369, 0, 655370, 0, 655371, 0, 655372, 0, 655373, 0, 655374, 1073741825, 655375, 1073741826, 655376, 1073741826, 655377, 1073741826, 655378, 1073741826, 720900, 1073741828, 720901, 1073741828, 720902, 1073741828, 720903, 1073741828, 720904, 1073741828, 720905, 0, 720906, 1073741828, 720907, 1073741828, 720908, 1073741828, 720909, 1073741828, 720910, 1073741826, 720911, 1073741829, 720912, 1073741829, 720913, 1073741829, 720914, 1073741829, 786439, 1073741829, 786440, 0, 786441, 0, 786442, 0, 786443, 1073741829, 786444, 2, 786445, 2, 786446, 1073741826, 786447, 1073741829, 786448, 0, 786449, 0, 786450, 1073741829, 851975, 1073741829, 851976, 0, 851977, 0, 851978, 0, 851979, 1073741829, 851980, 2, 851981, 0, 851982, 0, 851983, 1073741829, 851984, 0, 851985, 0, 851986, 1073741829, 917511, 1073741829, 917512, 0, 917513, 0, 917514, 0, 917515, 1073741829, 917516, 2, 917517, 0, 917518, 0, 917519, 0, 917520, 0, 917521, 0, 917522, 1073741829, 983047, 1073741829, 983048, 0, 983049, 0, 983050, 0, 983051, 1073741829, 983052, 2, 983053, 1073741829, 983054, 1073741829, 983055, 1073741829, 983056, 0, 983057, 0, 983058, 1073741829, 1048583, 1073741829, 1048584, 0, 1048585, 0, 1048586, 0, 1048587, 1073741829, 1048588, 1073741829, 1048589, 1073741829, 1048590, 1073741829, 1048591, 1073741829, 1048592, 0, 1048593, 0, 1048594, 1073741829, 1114119, 1073741829, 1114120, 0, 1114121, 0, 1114122, 0, 1114123, 1073741827, 1114124, 0, 1114125, 1073741827, 1114126, 0, 1114127, 0, 1114128, 0, 1114129, 0, 1114130, 1073741829, 1179655, 1073741829, 1179656, 1073741829, 1179657, 1073741829, 1179658, 1073741829, 1179659, 1073741829, 1179660, 1073741829, 1179661, 1073741829, 1179662, 1073741829, 1179663, 1073741829, 1179664, 1073741829, 1179665, 1073741829, 1179666, 1073741829 )

[node name="coins" type="Node2D" parent="."]

transform/pos = Vector2( 216, 176 )

[node name="item" parent="coins" instance=ExtResource( 2 )]

transform/pos = Vector2( 248, 288 )
item_texture_name = "coin"

[node name="player" parent="." instance=ExtResource( 3 )]

transform/pos = Vector2( 32, 232 )

[node name="torchs" type="Node2D" parent="."]

[node name="torch" parent="torchs" instance=ExtResource( 4 )]

transform/pos = Vector2( -8, 232 )

[node name="torch1" parent="torchs" instance=ExtResource( 4 )]

transform/pos = Vector2( 240, 240 )

[node name="items" type="Node2D" parent="."]

[node name="sign" parent="items" instance=ExtResource( 5 )]

editor/display_folded = true
transform/pos = Vector2( 304, 184 )
text = "WELCOME"

[node name="Label" type="Label" parent="items/sign"]

focus/ignore_mouse = true
focus/stop_mouse = true
size_flags/horizontal = 2
size_flags/vertical = 0
margin/left = -48.0
margin/top = -40.0
margin/right = 48.0
margin/bottom = -8.0
align = 1
valign = 1
autowrap = true
clip_text = true
percent_visible = 1.0
lines_skipped = 0
max_lines_visible = -1
script/script = SubResource( 2 )

[node name="sign1" parent="items" instance=ExtResource( 5 )]

transform/pos = Vector2( 240, 96 )
text = "TUTO_DOOR"

[node name="sign2" parent="items" instance=ExtResource( 5 )]

transform/pos = Vector2( 424, 208 )
text = "TUTO_DOOR_LOCKED"

[node name="sign3" parent="items" instance=ExtResource( 5 )]

transform/pos = Vector2( 336, -16 )
text = "TUTO_ITEM"

[node name="sign4" parent="items" instance=ExtResource( 5 )]

transform/pos = Vector2( 560, 200 )
text = "TUTO_TRAP"

[node name="sign5" parent="items" instance=ExtResource( 5 )]

transform/pos = Vector2( 336, 528 )
text = "TUTO_HOOK"

[node name="sign6" parent="items" instance=ExtResource( 5 )]

transform/pos = Vector2( 560, 496 )
text = "TUTO_ESCAPE"

[node name="sign7" parent="items" instance=ExtResource( 5 )]

transform/pos = Vector2( 464, 432 )
text = "TUTO_COIN"

[node name="doors" type="Node2D" parent="."]

[node name="door" parent="doors" instance=ExtResource( 6 )]

transform/pos = Vector2( 304, 80 )

[node name="door2" parent="doors" groups=[ "TUTO_2" ] instance=ExtResource( 6 )]

transform/pos = Vector2( 304, 368 )
transform/rot = 180.0
blocked = true
group = "2"

[node name="item" parent="doors/door2"]

transform/pos = Vector2( -288, 96 )

[node name="door1" parent="doors" groups=[ "tuto_1" ] instance=ExtResource( 6 )]

editor/display_folded = true
transform/pos = Vector2( 464, 240 )
transform/rot = -90.0
blocked = true
group = "1"

[node name="item" parent="doors/door1"]

transform/pos = Vector2( -216, 152 )

[node name="spawn" type="Position2D" parent="."]

transform/pos = Vector2( 34, 226 )

[node name="hook" type="Node2D" parent="."]

editor/display_folded = true

[node name="hook" parent="hook" instance=ExtResource( 7 )]

transform/pos = Vector2( 400, 560 )

[node name="hook1" parent="hook" instance=ExtResource( 7 )]

transform/pos = Vector2( 464, 560 )

[node name="Label" type="Label" parent="."]

focus/ignore_mouse = true
focus/stop_mouse = true
size_flags/horizontal = 2
size_flags/vertical = 0
margin/left = 40.0
margin/top = 184.0
margin/right = 130.0
margin/bottom = 198.0
text = "ZQSD / WQSD"
percent_visible = 1.0
lines_skipped = 0
max_lines_visible = -1

[node name="Label1" type="Label" parent="."]

focus/ignore_mouse = true
focus/stop_mouse = true
size_flags/horizontal = 2
size_flags/vertical = 0
margin/left = 40.0
margin/top = 200.0
margin/right = 130.0
margin/bottom = 214.0
text = "(SHIFT)"
align = 1
percent_visible = 1.0
lines_skipped = 0
max_lines_visible = -1

[node name="teleporter" parent="." instance=ExtResource( 8 )]

transform/pos = Vector2( 552, 408 )
destination_scene = "stage_1"

[node name="GUI" parent="." instance=ExtResource( 9 )]


[editable path="doors/door2"]
[editable path="doors/door1"]
