[gd_scene load_steps=6 format=1]

[ext_resource path="res://scenes/over/items/item.png" type="Texture" id=1]
[ext_resource path="res://assets/common/img/shine_particule.png" type="Texture" id=2]

[sub_resource type="RectangleShape2D" id=1]

custom_solver_bias = 0.0
extents = Vector2( 16, 16 )

[sub_resource type="GDScript" id=2]

script/source = "\nextends StaticBody2D\n\nexport(String) var item_texture_name = null\n\nexport(String) var signal_name = null\nexport(String) var group_name = null\n\nfunc _ready():\n\t# Called every time the node is added to the scene.\n\t# Initialization here\n\tif item_texture_name:\n\t\tget_node(\"sprite\").set_texture( ResourceLoader.load(\"res://scenes/over/items/\"+item_texture_name+\".png\") )\n\t\n\trotate( -get_parent().get_rot() )\n\tpass\n\t\n\t\nfunc trigger( player ):\n\tif signal_name and group_name :\n\t\tprint(\"Call group \" , group_name , \" method \" , signal_name )\n\t\tget_tree().call_group(0, group_name, signal_name )\n\t\n\tget_tree().call_group(0,\"item_collector\", item_texture_name+\"_collect\")\n\t\n\tif item_texture_name == \"coin\" :\n\t\tget_node(\"/root/player/sound\").play(\"relic\")\n\telif item_texture_name == \"key\" :\n\t\tget_node(\"/root/player/sound\").play(\"key\")\n\tqueue_free()\n\n\n"

[sub_resource type="Animation" id=3]

resource/name = "anim"
length = 1.0
loop = false
step = 0.1

[node name="item" type="StaticBody2D" groups=[ "trigger" ]]

input/pickable = true
shapes/0/shape = SubResource( 1 )
shapes/0/transform = Matrix32( 1, 0, 0, 1, 0, 0 )
shapes/0/trigger = true
collision/layers = 1
collision/mask = 1
constant_linear_velocity = Vector2( 0, 0 )
constant_angular_velocity = 0.0
friction = 1.0
bounce = 0.0
script/script = SubResource( 2 )
item_texture_name = ""
signal_name = null
group_name = null

[node name="sprite" type="Sprite" parent="." groups=[ "trigger" ]]

texture = ExtResource( 1 )

[node name="col" type="CollisionShape2D" parent="."]

shape = SubResource( 1 )
trigger = true
_update_shape_index = 0

[node name="AnimationPlayer" type="AnimationPlayer" parent="."]

playback/process_mode = 1
playback/default_blend_time = 0.0
root/root = NodePath("..")
anims/anim = SubResource( 3 )
playback/active = true
playback/speed = 1.0
blend_times = [  ]
autoplay = ""

[node name="particles" type="Particles2D" parent="."]

visibility/opacity = 0.8
visibility/behind_parent = true
transform/pos = Vector2( 0, 8 )
config/amount = 6
config/lifetime = 2.0
config/local_space = false
config/texture = ExtResource( 2 )
params/direction = 180.0
params/spread = 50.0
params/linear_velocity = 20.0
params/spin_velocity = 1.0
params/orbit_velocity = 0.0
params/gravity_direction = 0.0
params/gravity_strength = 9.8
params/radial_accel = 0.0
params/tangential_accel = 0.0
params/damping = 0.0
params/initial_angle = 0.0
params/initial_size = 1.0
params/final_size = 1.0
params/hue_variation = 0.0
params/anim_speed_scale = 1.0
params/anim_initial_pos = 0.0


